[debug] > Exec(all {file:/C:/Users/Petr/Desktop/ascii_school/}ascii_school/products {file:/C:/Users/Petr/Desktop/ascii_school/}ascii_school/test:products, None, None)
[debug] Evaluating tasks: Compile / products, Test / products
[debug] Running task... Cancel: Signal, check cycles: false, forcegc: true
[success] Total time: 0 s, completed 15. 11. 2021 12:22:41
[debug] > Exec(idea-shell, None, None)
[debug] > Exec(, None, None)
[debug] > Exec(idea-shell, None, None)
